;LEADER: 12 
;HEADER: 
;CODE  : ASCII 
;FILE  : m8212_conn_v1_0-1-6.drl for board introscan_array_conn_v1_0.brd ... layers TOP and BOTTOM
;T01 Holesize 1. = 0.300000 Tolerance = +0.000000/-0.000000 PLATED MM Quantity = 16
;T02 Holesize 2. = 0.400000 Tolerance = +0.000000/-0.000000 PLATED MM Quantity = 312
;T03 Holesize 3. = 0.500000 Tolerance = +0.000000/-0.000000 PLATED MM Quantity = 94
;T04 Holesize 4. = 3.200000 Tolerance = +0.000000/-0.000000 PLATED MM Quantity = 8
%
G90
T01
X01200000Y00240000
X01874000Y-00703000
X03714000Y00190000
X04414000Y-00764000
X06225000Y00190000
X06952000Y-00757000
X08725000Y00190000
X09402000Y-00746000
X11248000Y00190000
X11949000Y-00778000
X13725000Y00190000
X14410001Y-00780000
X16242000Y00217000
X16950000Y-00780000
X18720000Y00170000
X19403000Y-00762000
T02
X-00860000Y00670000
X-01250000Y00130000
X-00850000Y00040000
X-01160000Y-01520000
X-00780000Y-01940000
X-00480000Y-01580000
X-00010000Y-01410000
X-00047000Y-00860000
X-00165000Y-00490000
X-00532000Y-00010000
X-00752000Y00268000
X-00720000Y00420000
X-00090000Y00500000
X-00627000Y00576000
X-00137000Y00829000
X-00370000Y01040000
X00540000Y01010000
X00660000Y00550000
X00176000Y00428000
X00716000Y00420000
X00340000Y00390000
X00330000Y-00390000
X00080000Y-00480000
X00260000Y-01080000
X00730000Y-01440000
X00159000Y-01520000
X00660000Y-02490000
X01370000Y-02070000
X01330000Y-01730000
X01425000Y-00844000
X01236000Y-00742000
X01115000Y-00732000
X00821940Y-00554330
X01061940Y-00359330
X00938000Y00084000
X02250000Y01290000
X01720000Y00960000
X01810000Y00570000
X01660000Y00519220
X01780000Y00420000
X01980000Y-00190000
X01590000Y-00860000
X02225940Y-00933330
X02093000Y-01384000
X01580000Y-01640000
X02010000Y-01651000
X02840000Y-01770000
X02682000Y-01487000
X02491000Y-01472000
X02860000Y-01300000
X02531940Y-00939330
X03030000Y-00830000
X02769000Y-00787000
X02500000Y-00580000
X02580000Y-00480000
X02830000Y-00390000
X02840000Y00390000
X02560000Y00490000
X02727000Y00493000
X02350000Y00530000
X03120000Y01210000
X03213000Y00692000
X03240000Y00390000
X03410000Y00320000
X03305000Y-00022000
X03701000Y-00329000
X03159000Y-00497000
X03620000Y-00770000
X03230000Y-01440000
X03561300Y-01741120
X03360000Y-01990000
X04250000Y-02480000
X04350000Y-02160000
X03940000Y-02060000
X03830000Y-01730000
X04080000Y-01640000
X04090000Y-00860000
X03920000Y-00820000
X04480000Y-00190000
X04243000Y00291000
X04267000Y00476000
X04456000Y00657000
X04510000Y01200000
X04940000Y01030000
X04772000Y00794000
X05174000Y00791000
X04962000Y00536000
X05238000Y00501000
X05330000Y-00390000
X05080000Y-00480000
X04962000Y-00543000
X05273940Y-00933330
X04765940Y-00933330
X05019940Y-01187330
X04780000Y-01300000
X04913760Y-01368660
X04750000Y-01510000
X05610000Y-02480000
X05730000Y-01440000
X05530000Y-00830000
X05527940Y-00679330
X05820000Y-00530000
X06025000Y-00390000
X05801000Y-00103000
X05940000Y00232000
X05340000Y00390000
X05720000Y00546000
X05581000Y00628000
X05718000Y00909000
X06750000Y00570000
X06616000Y00483000
X06790000Y00430000
X06202000Y-00768000
X06460000Y-00800000
X06590000Y-00860000
X06580000Y-01640000
X06330000Y-01730000
X06370000Y-02070000
X06932000Y-01733000
X07060000Y-01490000
X07430000Y-01460000
X07032000Y-01013000
X07305940Y-00933330
X07455000Y-00520000
X07580000Y-00480000
X06980000Y-00190000
X07481000Y00535000
X07336000Y00535000
X08130000Y01210000
X08181940Y00890670
X07711000Y00455000
X07840000Y00390000
X08370000Y00140000
X08307000Y-00243000
X07830000Y-00390000
X07730000Y-00800000
X08030000Y-00830000
X08230000Y-01440000
X07905000Y-01640000
X08128000Y-01828000
X08460000Y00320000
X08460000Y00050000
X08703000Y-00320000
X08495000Y-00358000
X08690000Y-00770000
X08960000Y-00800000
X09090000Y-00860000
X09080000Y-01640000
X08830000Y-01730000
X08452000Y-02015000
X08991000Y-02116000
X09310000Y-02500000
X09373940Y-02149330
X09181000Y-02149000
X09560000Y-01490000
X09542890Y-01307990
X09543000Y-01076000
X09845940Y-00933330
X09900000Y-00520000
X09480000Y-00190000
X09232000Y00309000
X09422000Y00606000
X09566000Y00701000
X09850000Y00826000
X09370000Y00840000
X09591940Y00844670
X09630000Y01280000
X09942000Y00518000
X10179000Y00410000
X10340000Y00390000
X10330000Y-00390000
X10080000Y-00480000
X10180000Y-00820000
X10530000Y-00830000
X10724000Y00500000
X10972000Y00209000
X10803000Y-00224000
X11140000Y-00380000
X10785000Y-00569000
X11161000Y-00775000
X11416000Y-00845000
X10730000Y-01440000
X11330000Y-01730000
X11368000Y-02075000
X10780000Y-02480000
X11890000Y-01770000
X11580000Y-01640000
X12060000Y-01490000
X12044940Y-00951330
X11590000Y-00860000
X11980000Y-00190000
X11634980Y00506010
X11917000Y00571000
X11774000Y00582000
X12355000Y00526000
X12496000Y00519000
X12688000Y00402000
X12839999Y00390000
X12830000Y-00390000
X12580000Y-00480000
X12244000Y-00489000
X12370000Y-00550000
X12670000Y-00840000
X12385940Y-00933330
X12881000Y-01151000
X12630000Y-01330000
X13356000Y-01999000
X13195000Y-01871000
X13041071Y-01718930
X13230000Y-01440000
X13630000Y-00770000
X13460001Y-00360000
X13672000Y-00350000
X13310001Y-00240000
X13348000Y00120000
X13420000Y00214320
X13475999Y00309000
X13100000Y01180000
X14450000Y01000000
X14273000Y00449000
X14250999Y00300000
X13928999Y-00818000
X14089999Y-00860000
X14080000Y-01640000
X13830000Y-01730000
X14181000Y-01949000
X13721001Y-02069000
X14370000Y-02470000
X14560001Y-01490000
X14775000Y-01421000
X14920000Y-01140000
X14589999Y-01110000
X14925940Y-00933330
X14870000Y-00530000
X15080000Y-00480000
X14480000Y-00190000
X15167000Y00442000
X14880000Y00510000
X14850000Y00810000
X14739999Y01240000
X15650000Y00570000
X15789999Y00460000
X15339999Y00390000
X15789999Y00270000
X15803000Y-00204000
X15330000Y-00390000
X15869000Y-00497000
X15530000Y-00830000
X15239999Y-00870000
X15300000Y-01010000
X15730000Y-01440000
X15730000Y-02450000
X16366000Y-02079000
X16330000Y-01730000
X16580000Y-01640000
X16589999Y-00860000
X16450000Y-00790000
X16156000Y-00761000
X16064000Y-00375000
X16253999Y00386000
X16628000Y00510000
X16839000Y00630000
X17350000Y00530000
X17508000Y00496000
X16794000Y00470000
X16980000Y-00190000
X17310001Y-00495000
X17189999Y-00830000
X17277000Y-01064000
X17050000Y-01114000
X17060001Y-01490000
X16891000Y-01778000
X18230000Y-02260000
X18005000Y-01790000
X17719940Y-01695330
X18230000Y-01440000
X17780000Y-01150000
X17950000Y-00982000
X17739999Y-00795000
X17921960Y-00721960
X17580000Y-00480000
X17830000Y-00390000
X17839999Y00390000
X17717000Y00484000
X17620000Y00820000
X18120000Y01200000
X18400000Y00140000
X18410001Y00000000
X19041000Y-00053000
X18310001Y-00240000
X18702000Y-00329000
X18341000Y-00537000
X18770000Y-00775000
X18994000Y-00868000
X18830000Y-01730000
X18600000Y-01750000
X18560001Y-02045000
X18980000Y-02280000
X19450000Y-02000000
X19456000Y-01668000
X19789999Y-01650000
X19080000Y-01640000
X19480000Y-01210000
X19810001Y-01140000
X19530000Y-00990000
X19139999Y-00872350
X19700000Y-00620000
X19610001Y-00170000
X19470000Y00000000
X19239999Y00150000
X19500000Y00890000
X19950000Y00260000
T03
X-00320000Y-01020000
X-00200000Y-00090000
X-00200000Y00060000
X00062670Y00469000
X00210000Y-00510000
X00340000Y-01470000
X01000000Y-01750000
X01460000Y-01760000
X01190000Y-01750000
X01050000Y-01340000
X01050000Y-01190000
X01390080Y-00734000
X01710000Y-00500000
X01039990Y00220000
X02649000Y00396000
X02300000Y00060000
X02300000Y-00090000
X02710000Y-00510000
X03553990Y00170000
X03800000Y-00760000
X03550000Y-01190000
X03550000Y-01340000
X03960000Y-01760000
X04294000Y-00540000
X04800000Y-00090000
X04800000Y00060000
X05121000Y00447000
X06064990Y00170000
X05210000Y-00510000
X05280000Y-01150000
X06050000Y-01190000
X06050000Y-01340000
X06010000Y-01750000
X06187000Y-01761000
X06460000Y-01760000
X06340000Y-00779000
X06805000Y-00540000
X07160000Y-00750000
X07710000Y-00510000
X07300000Y-00090000
X07300000Y00060000
X07597000Y00499000
X08564990Y00170000
X08840000Y-00780000
X08550000Y-01190000
X08550000Y-01340000
X08960000Y-01760000
X09305000Y-00540000
X09800000Y-00090000
X09800000Y00060000
X10074000Y00509000
X11087990Y00170000
X10210000Y-00510000
X11050000Y-01190000
X10330000Y-01300000
X11050000Y-01340000
X11024000Y-01753000
X11193000Y-01767000
X11460000Y-01760000
X11310000Y-00760000
X11828000Y-00540000
X12710000Y-00510000
X12300000Y-00090000
X12300000Y00060000
X12616000Y00499000
X13564990Y00170000
X13780000Y-00760000
X13550000Y-01190000
X13550000Y-01340000
X13960001Y-01760000
X14305000Y-00540000
X15210001Y-00510000
X14800000Y-00090000
X14800000Y00060000
X15023000Y00493000
X16081990Y00197000
X16050000Y-01190000
X16050000Y-01340000
X15270000Y-01500000
X16000000Y-01740000
X16210001Y-01760000
X16460001Y-01760000
X16310001Y-00770000
X16822000Y-00513000
X17710001Y-00510000
X17300000Y-00090000
X17300000Y00060000
X17610001Y00410000
X18564990Y00170000
X18882249Y-00800000
X18550000Y-01190000
X18550000Y-01340000
X18960001Y-01760000
X19305000Y-00540000
T04
X01250000Y00836000
X02500000Y-02080000
X06250000Y00836000
X07500000Y-02080000
X11250000Y00836000
X12500000Y-02080000
X16250000Y00836000
X17500000Y-02080000
M30
